{
  "project_info": {
    "project_number": "577764490893",
    "firebase_url": "https://poc-dfimoveis.firebaseio.com",
    "project_id": "poc-dfimoveis",
    "storage_bucket": "poc-dfimoveis.appspot.com"
  },
  "client": [
    {
      "client_info": {
        "mobilesdk_app_id": "1:577764490893:android:ccb943bf19414614f0acc4",
        "android_client_info": {
          "package_name": "com.example.pocdfimoveis"
        }
      },
      "oauth_client": [
        {
          "client_id": "577764490893-oo9g5oc5464801f41ejsm0n17eb5mc7s.apps.googleusercontent.com",
          "client_type": 3
        }
      ],
      "api_key": [
        {
          "current_key": "AIzaSyClTSo2BfsbgY-YtTL-weDoIFmnU2vqnlc"
        }
      ],
      "services": {
        "appinvite_service": {
          "other_platform_oauth_client": [
            {
              "client_id": "577764490893-oo9g5oc5464801f41ejsm0n17eb5mc7s.apps.googleusercontent.com",
              "client_type": 3
            }
          ]
        }
      }
    }
  ],
  "configuration_version": "1"
}